…
      $var_props
      [1] 0.54789442 0.22093799 0.09362744 0.04409570 0.02264186
      
      $total_variance
      [1] 0.05395462
      
      $center_qts
      # A tibble: 101 x 5
          time         w         x         y         z
         <int> <dec:.5!> <dec:.5!> <dec:.5!> <dec:.5!>
       1     0   0.99484   0.07709   0.06585   0.00272
       2     1   0.99525   0.07180   0.06567   0.00335
       3     2   0.99570   0.06639   0.06455   0.00409
       4     3   0.99616   0.06104   0.06264   0.00461
       5     4   0.99659   0.05616   0.06023   0.00482
       6     5   0.99698   0.05198   0.05751   0.00464
       7     6   0.99731   0.04865   0.05460   0.00406
       8     7   0.99760   0.04615   0.05157   0.00310
       9     8   0.99784   0.04430   0.04844   0.00181
      10     9   0.99806   0.04283   0.04527   0.00027
      # i 91 more rows
      
      $mean_qts
      # A tibble: 101 x 5
          time         w         x         y         z
         <int> <dec:.5!> <dec:.5!> <dec:.5!> <dec:.5!>
       1     0   0.99484   0.07709   0.06585   0.00272
       2     1   0.99525   0.07180   0.06567   0.00335
       3     2   0.99570   0.06639   0.06455   0.00409
       4     3   0.99616   0.06104   0.06264   0.00461
       5     4   0.99659   0.05616   0.06023   0.00482
       6     5   0.99698   0.05198   0.05751   0.00464
       7     6   0.99731   0.04865   0.05460   0.00406
       8     7   0.99760   0.04615   0.05157   0.00310
       9     8   0.99784   0.04430   0.04844   0.00181
      10     9   0.99806   0.04283   0.04527   0.00027
      # i 91 more rows
      
      $principal_qts
      $principal_qts[[1]]
      # A tibble: 101 x 5
          time         w         x         y         z
         <int> <dec:.5!> <dec:.5!> <dec:.5!> <dec:.5!>
       1     0   0.97953   0.04724   0.11044   0.16154
       2     1   0.98110   0.04099   0.10015   0.16043
       3     2   0.98263   0.03496   0.09080   0.15800
       4     3   0.98419   0.02928   0.08235   0.15404
       5     4   0.98576   0.02437   0.07486   0.14860
       6     5   0.98733   0.02042   0.06834   0.14173
       7     6   0.98890   0.01754   0.06275   0.13354
       8     7   0.99044   0.01567   0.05803   0.12420
       9     8   0.99192   0.01458   0.05407   0.11386
      10     9   0.99331   0.01393   0.05084   0.10278
      # i 91 more rows
      
      $principal_qts[[2]]
      # A tibble: 101 x 5
          time         w         x         y         z
         <int> <dec:.5!> <dec:.5!> <dec:.5!> <dec:.5!>
       1     0   0.97559   0.21184   0.05745   0.00664
       2     1   0.97961   0.19154   0.06007   0.00825
       3     2   0.98306   0.17263   0.06075   0.00986
       4     3   0.98601   0.15523   0.05975   0.01109
       5     4   0.98845   0.13970   0.05746   0.01179
       6     5   0.99045   0.12623   0.05422   0.01188
       7     6   0.99204   0.11490   0.05029   0.01132
       8     7   0.99330   0.10563   0.04586   0.01013
       9     8   0.99428   0.09819   0.04112   0.00833
      10     9   0.99506   0.09222   0.03624   0.00601
      # i 91 more rows
      
      $principal_qts[[3]]
      # A tibble: 101 x 5
          time         w         x         y         z
         <int> <dec:.5!> <dec:.5!> <dec:.5!> <dec:.5!>
       1     0   0.99731   0.06653  -0.00137  -0.03080
       2     1   0.99821   0.05465   0.00442  -0.02381
       3     2   0.99882   0.04432   0.00999  -0.01702
       4     3   0.99919   0.03551   0.01543  -0.01081
       5     4   0.99936   0.02850   0.02094  -0.00528
       6     5   0.99937   0.02336   0.02662  -0.00051
       7     6   0.99926   0.02009   0.03251   0.00350
       8     7   0.99906   0.01855   0.03856   0.00679
       9     8   0.99879   0.01841   0.04469   0.00944
      10     9   0.99845   0.01926   0.05087   0.01155
      # i 91 more rows
      
      $principal_qts[[4]]
      # A tibble: 101 x 5
          time         w         x         y         z
         <int> <dec:.5!> <dec:.5!> <dec:.5!> <dec:.5!>
       1     0   0.99989  -0.01270   0.00425  -0.00590
       2     1   0.99997  -0.00380   0.00266  -0.00659
       3     2   0.99997   0.00296   0.00107  -0.00773
       4     3   0.99992   0.00793  -0.00042  -0.00952
       5     4   0.99986   0.01174  -0.00161  -0.01200
       6     5   0.99977   0.01481  -0.00236  -0.01516
       7     6   0.99966   0.01751  -0.00264  -0.01893
       8     7   0.99953   0.02003  -0.00245  -0.02319
       9     8   0.99936   0.02240  -0.00185  -0.02780
      10     9   0.99917   0.02457  -0.00084  -0.03255
      # i 91 more rows
      
      $principal_qts[[5]]
      # A tibble: 101 x 5
          time         w         x         y         z
         <int> <dec:.5!> <dec:.5!> <dec:.5!> <dec:.5!>
       1     0   0.98964   0.12213   0.06233  -0.04248
       2     1   0.99429   0.09088   0.04123  -0.03788
       3     2   0.99707   0.06329   0.02529  -0.03476
       4     3   0.99857   0.03927   0.01408  -0.03336
       5     4   0.99923   0.01897   0.00733  -0.03369
       6     5   0.99935   0.00233   0.00465  -0.03567
       7     6   0.99916  -0.01076   0.00558  -0.03911
       8     7   0.99878  -0.02060   0.00959  -0.04378
       9     8   0.99827  -0.02764   0.01610  -0.04935
      10     9   0.99763  -0.03241   0.02454  -0.05548
      # i 91 more rows
…
