# The function rnorm_qts() works

    Code
      rnorm_qts(1, vespa64$igp[[1]])
    Output
      [[1]]
      # A tibble: 101 x 5
          time     w       x        y      z
         <int> <dbl>   <dbl>    <dbl>  <dbl>
       1     0 0.998 -0.0408  0.0225  0.0319
       2     1 0.998 -0.0446  0.0206  0.0348
       3     2 0.998 -0.0449  0.0153  0.0357
       4     3 0.997 -0.0606  0.00801 0.0382
       5     4 0.997 -0.0631  0.00531 0.0453
       6     5 0.997 -0.0645 -0.00204 0.0488
       7     6 0.996 -0.0699 -0.00447 0.0473
       8     7 0.996 -0.0744 -0.00602 0.0404
       9     8 0.996 -0.0785 -0.00951 0.0401
      10     9 0.996 -0.0839 -0.0139  0.0359
      # ... with 91 more rows
      
      attr(,"class")
      [1] "qts_sample" "list"      

# The function scale_qts() works (center = TRUE, by_row = FALSE, keep_summary_stats = FALSE)

    Code
      qts_list[[1]]
    Output
      # A tibble: 101 x 5
          time     w       x         y        z
         <dbl> <dbl>   <dbl>     <dbl>    <dbl>
       1     0 1.00  -0.0185  0.0226   -0.00497
       2     1 1.00  -0.0200  0.0195   -0.00491
       3     2 1.00  -0.0217  0.0159   -0.00514
       4     3 1.00  -0.0241  0.0121   -0.00573
       5     4 1.00  -0.0261  0.00892  -0.00643
       6     5 1.00  -0.0280  0.00619  -0.00707
       7     6 1.00  -0.0295  0.00407  -0.00758
       8     7 1.00  -0.0303  0.00242  -0.00807
       9     8 0.999 -0.0307  0.00100  -0.00865
      10     9 0.999 -0.0308 -0.000556 -0.00936
      # ... with 91 more rows

# The function scale_qts() works (center = TRUE, by_row = TRUE, keep_summary_stats = FALSE)

    Code
      qts_list[[1]]
    Output
      # A tibble: 101 x 5
          time     w      x      y       z
         <int> <dbl>  <dbl>  <dbl>   <dbl>
       1     0 0.997 0.0624 0.0402 0.00987
       2     1 0.997 0.0590 0.0387 0.00967
       3     2 0.998 0.0555 0.0367 0.00932
       4     3 0.998 0.0519 0.0343 0.00869
       5     4 0.998 0.0490 0.0319 0.00787
       6     5 0.998 0.0465 0.0297 0.00689
       7     6 0.999 0.0445 0.0276 0.00578
       8     7 0.999 0.0431 0.0255 0.00448
       9     8 0.999 0.0419 0.0233 0.00300
      10     9 0.999 0.0409 0.0209 0.00135
      # ... with 91 more rows

# The mean() method works for qts_sample objects

    Code
      mean(vespa64$igp)
    Output
      # A tibble: 101 x 5
          time     w      x      y       z
         <int> <dbl>  <dbl>  <dbl>   <dbl>
       1     0 0.994 0.0940 0.0529 0.0147 
       2     1 0.994 0.0894 0.0535 0.0146 
       3     2 0.995 0.0847 0.0535 0.0145 
       4     3 0.995 0.0803 0.0528 0.0142 
       5     4 0.996 0.0765 0.0516 0.0135 
       6     5 0.996 0.0733 0.0501 0.0125 
       7     6 0.996 0.0706 0.0483 0.0112 
       8     7 0.997 0.0683 0.0461 0.00960
       9     8 0.997 0.0663 0.0436 0.00773
      10     9 0.997 0.0644 0.0408 0.00570
      # ... with 91 more rows

# The median() method works for qts_sample objects

    Code
      median(vespa64$igp)
    Output
      # A tibble: 101 x 5
          time     w      x      y       z
         <int> <dbl>  <dbl>  <dbl>   <dbl>
       1     0 0.994 0.0916 0.0589 0.0151 
       2     1 0.994 0.0864 0.0591 0.0149 
       3     2 0.995 0.0818 0.0585 0.0146 
       4     3 0.995 0.0775 0.0572 0.0141 
       5     4 0.996 0.0736 0.0554 0.0134 
       6     5 0.996 0.0702 0.0533 0.0124 
       7     6 0.996 0.0671 0.0509 0.0111 
       8     7 0.997 0.0645 0.0482 0.00938
       9     8 0.997 0.0622 0.0453 0.00742
      10     9 0.997 0.0600 0.0423 0.00530
      # ... with 91 more rows
