# The function derivative_qts() works

    Code
      derivative_qts(vespa$igp[[1]])
    Output
      # A tibble: 100 x 5
          time     w        x        y         z
         <int> <dbl>    <dbl>    <dbl>     <dbl>
       1     1  1.00 -0.00451 -0.00223 -0.000108
       2     2  1.00 -0.00497 -0.00336 -0.000250
       3     3  1.00 -0.00511 -0.00445 -0.000610
       4     4  1.00 -0.00366 -0.00373 -0.000784
       5     5  1.00 -0.00348 -0.00384 -0.000978
       6     6  1.00 -0.00331 -0.00393 -0.00119 
       7     7  1.00 -0.00248 -0.00406 -0.00141 
       8     8  1.00 -0.00252 -0.00427 -0.00158 
       9     9  1.00 -0.00254 -0.00445 -0.00173 
      10    10  1.00 -0.00226 -0.00479 -0.00197 
      # ... with 90 more rows

# The function rnorm_qts() works

    Code
      rnorm_qts(1, vespa$igp[[1]])
    Output
      [[1]]
      # A tibble: 101 x 5
          time     w       x         y      z
         <int> <dbl>   <dbl>     <dbl>  <dbl>
       1     0 0.999 -0.0405  0.0265   0.0249
       2     1 0.998 -0.0437  0.0246   0.0281
       3     2 0.998 -0.0437  0.0190   0.0293
       4     3 0.998 -0.0591  0.0109   0.0321
       5     4 0.997 -0.0608  0.00804  0.0395
       6     5 0.997 -0.0619  0.000303 0.0434
       7     6 0.997 -0.0677 -0.00276  0.0423
       8     7 0.997 -0.0726 -0.00510  0.0358
       9     8 0.996 -0.0775 -0.00947  0.0359
      10     9 0.996 -0.0840 -0.0146   0.0322
      # ... with 91 more rows
      

# The function scale_qts() works (center = TRUE, by_row = FALSE, keep_summary_stats = FALSE)

    Code
      qts_list[[1]]
    Output
      # A tibble: 101 x 5
          time     w        x         y        z
         <dbl> <dbl>    <dbl>     <dbl>    <dbl>
       1     0  1.00 -0.00714  0.0110   -0.00598
       2     1  1.00 -0.00734  0.00978  -0.00592
       3     2  1.00 -0.00781  0.00825  -0.00595
       4     3  1.00 -0.00860  0.00633  -0.00611
       5     4  1.00 -0.00883  0.00499  -0.00626
       6     5  1.00 -0.00933  0.00370  -0.00634
       7     6  1.00 -0.0101   0.00250  -0.00637
       8     7  1.00 -0.0106   0.00135  -0.00635
       9     8  1.00 -0.0113   0.000223 -0.00628
      10     9  1.00 -0.0120  -0.000895 -0.00619
      # ... with 91 more rows

# The function scale_qts() works (center = TRUE, by_row = TRUE, keep_summary_stats = FALSE)

    Code
      qts_list[[1]]
    Output
      # A tibble: 101 x 5
          time     w      x      y         z
         <int> <dbl>  <dbl>  <dbl>     <dbl>
       1     0 0.997 0.0610 0.0411  0.00568 
       2     1 0.998 0.0579 0.0396  0.00565 
       3     2 0.998 0.0546 0.0373  0.00549 
       4     3 0.998 0.0511 0.0343  0.00502 
       5     4 0.998 0.0486 0.0318  0.00442 
       6     5 0.998 0.0462 0.0292  0.00368 
       7     6 0.999 0.0439 0.0266  0.00279 
       8     7 0.999 0.0422 0.0239  0.00172 
       9     8 0.999 0.0405 0.0210  0.000527
      10     9 0.999 0.0387 0.0181 -0.000776
      # ... with 91 more rows
