# The function tpca_qts() works

    Code
      res_pca
    Output
      $tpca
      5 multivariate functional principal components estimated with 3 elements, each.
                           * * * * * * * * * *                     
      Eigenvalues:
      [1] 0.058783339 0.029836136 0.014028292 0.005398337 0.004553233
      
      $mean_qts
      # A tibble: 101 x 5
          time     w      x      y       z
         <int> <dbl>  <dbl>  <dbl>   <dbl>
       1     0 0.994 0.0875 0.0552 0.0172 
       2     1 0.995 0.0856 0.0540 0.0159 
       3     2 0.995 0.0837 0.0528 0.0147 
       4     3 0.995 0.0817 0.0516 0.0135 
       5     4 0.995 0.0796 0.0503 0.0122 
       6     5 0.996 0.0774 0.0488 0.0109 
       7     6 0.996 0.0751 0.0472 0.00958
       8     7 0.996 0.0725 0.0454 0.00822
       9     8 0.997 0.0698 0.0434 0.00681
      10     9 0.997 0.0668 0.0411 0.00534
      # ... with 91 more rows
      
      $principal_qts
      $principal_qts[[1]]
      # A tibble: 101 x 5
          time     w      x       y       z
         <int> <dbl>  <dbl>   <dbl>   <dbl>
       1     0 0.990 -0.123 0.0418  -0.0610
       2     1 0.990 -0.123 0.0373  -0.0574
       3     2 0.991 -0.122 0.0328  -0.0538
       4     3 0.991 -0.121 0.0285  -0.0503
       5     4 0.991 -0.120 0.0243  -0.0467
       6     5 0.992 -0.119 0.0205  -0.0430
       7     6 0.992 -0.118 0.0169  -0.0394
       8     7 0.992 -0.117 0.0138  -0.0357
       9     8 0.993 -0.116 0.0111  -0.0320
      10     9 0.993 -0.114 0.00898 -0.0283
      # ... with 91 more rows
      
      $principal_qts[[2]]
      # A tibble: 101 x 5
          time     w       x       y      z
         <int> <dbl>   <dbl>   <dbl>  <dbl>
       1     0 0.994 -0.0417 -0.0763 0.0730
       2     1 0.994 -0.0421 -0.0721 0.0720
       3     2 0.994 -0.0424 -0.0679 0.0710
       4     3 0.995 -0.0427 -0.0635 0.0698
       5     4 0.995 -0.0430 -0.0589 0.0684
       6     5 0.995 -0.0433 -0.0540 0.0667
       7     6 0.996 -0.0436 -0.0488 0.0647
       8     7 0.996 -0.0439 -0.0430 0.0623
       9     8 0.997 -0.0441 -0.0368 0.0594
      10     9 0.997 -0.0444 -0.0300 0.0559
      # ... with 91 more rows
      
      $principal_qts[[3]]
      # A tibble: 101 x 5
          time     w        x      y      z
         <int> <dbl>    <dbl>  <dbl>  <dbl>
       1     0 0.990  0.0271  0.0623 0.121 
       2     1 0.991  0.0227  0.0581 0.118 
       3     2 0.992  0.0184  0.0538 0.116 
       4     3 0.992  0.0141  0.0495 0.113 
       5     4 0.993  0.00992 0.0452 0.110 
       6     5 0.993  0.00578 0.0408 0.107 
       7     6 0.994  0.00175 0.0363 0.104 
       8     7 0.994 -0.00216 0.0318 0.101 
       9     8 0.995 -0.00592 0.0272 0.0979
      10     9 0.995 -0.00952 0.0225 0.0945
      # ... with 91 more rows
      
      $principal_qts[[4]]
      # A tibble: 101 x 5
          time     w        x         y      z
         <int> <dbl>    <dbl>     <dbl>  <dbl>
       1     0 0.996 -0.0281   0.0189   0.0778
       2     1 0.997 -0.0204   0.0124   0.0725
       3     2 0.998 -0.0128   0.00589  0.0672
       4     3 0.998 -0.00547 -0.000653 0.0619
       5     4 0.998  0.00154 -0.00722  0.0566
       6     5 0.999  0.00806 -0.0138   0.0513
       7     6 0.999  0.0140  -0.0205   0.0460
       8     7 0.999  0.0192  -0.0272   0.0408
       9     8 0.999  0.0236  -0.0339   0.0356
      10     9 0.998  0.0270  -0.0407   0.0304
      # ... with 91 more rows
      
      $principal_qts[[5]]
      # A tibble: 101 x 5
          time     w      x         y      z
         <int> <dbl>  <dbl>     <dbl>  <dbl>
       1     0 0.997 0.0647 -0.0500   0.0109
       2     1 0.997 0.0668 -0.0426   0.0161
       3     2 0.997 0.0688 -0.0353   0.0212
       4     3 0.997 0.0707 -0.0283   0.0264
       5     4 0.997 0.0723 -0.0216   0.0314
       6     5 0.996 0.0737 -0.0153   0.0363
       7     6 0.996 0.0748 -0.00960  0.0412
       8     7 0.996 0.0755 -0.00452  0.0458
       9     8 0.996 0.0758 -0.000216 0.0503
      10     9 0.996 0.0755  0.00322  0.0545
      # ... with 91 more rows
…
