QTS Hemispherization — hemispherize • squat
…
    Arguments

    x
An object of class qts or qts_sample.

    Value

An object of the same class as the input argument x with no
quaternion flip discontinuities.

    Examples

hemispherize(vespa64$igp[[1]])
#> # A tibble: 101 × 5
#>     time         w         x         y         z
#>    <int> <dec:.5!> <dec:.5!> <dec:.5!> <dec:.5!>
#>  1     0   0.99427   0.07973   0.06988   0.01334
#>  2     1   0.99483   0.07457   0.06763   0.01313
#>  3     2   0.99542   0.06931   0.06457   0.01269
#>  4     3   0.99602   0.06398   0.06091   0.01184
#>  5     4   0.99652   0.05949   0.05742   0.01070
#>  6     5   0.99694   0.05572   0.05403   0.00932
#>  7     6   0.99729   0.05275   0.05079   0.00772
#>  8     7   0.99757   0.05056   0.04761   0.00583
#>  9     8   0.99782   0.04883   0.04430   0.00366
#> 10     9   0.99805   0.04730   0.04071   0.00125
#> # … with 91 more rows
hemispherize(vespa64$igp)
#> [[1]]
#> # A tibble: 101 × 5
#>     time         w         x         y         z
#>    <int> <dec:.5!> <dec:.5!> <dec:.5!> <dec:.5!>
#>  1     0   0.99427   0.07973   0.06988   0.01334
#>  2     1   0.99483   0.07457   0.06763   0.01313
#>  3     2   0.99542   0.06931   0.06457   0.01269
#>  4     3   0.99602   0.06398   0.06091   0.01184
#>  5     4   0.99652   0.05949   0.05742   0.01070
#>  6     5   0.99694   0.05572   0.05403   0.00932
#>  7     6   0.99729   0.05275   0.05079   0.00772
#>  8     7   0.99757   0.05056   0.04761   0.00583
#>  9     8   0.99782   0.04883   0.04430   0.00366
#> 10     9   0.99805   0.04730   0.04071   0.00125
#> # … with 91 more rows
#> 
#> [[2]]
#> # A tibble: 101 × 5
#>     time         w         x         y         z
#>    <int> <dec:.5!> <dec:.5!> <dec:.5!> <dec:.5!>
#>  1     0   0.99379   0.08282   0.07370   0.00994
#>  2     1   0.99441   0.07727   0.07120   0.01036
#>  3     2   0.99503   0.07171   0.06829   0.01059
#>  4     3   0.99565   0.06598   0.06489   0.01047
#>  5     4   0.99625   0.06032   0.06124   0.01005
#>  6     5   0.99677   0.05525   0.05756   0.00927
#>  7     6   0.99717   0.05142   0.05417   0.00810
#>  8     7   0.99751   0.04849   0.05080   0.00655
#>  9     8   0.99780   0.04622   0.04723   0.00461
#> 10     9   0.99806   0.04442   0.04345   0.00237
#> # … with 91 more rows
#> 
#> [[3]]
#> # A tibble: 101 × 5
#>     time         w         x         y         z
#>    <int> <dec:.5!> <dec:.5!> <dec:.5!> <dec:.5!>
#>  1     0   0.99262   0.09948   0.06271  -0.02971
#>  2     1   0.99312   0.09388   0.06347  -0.02941
#>  3     2   0.99375   0.08743   0.06335  -0.02831
#>  4     3   0.99446   0.08006   0.06255  -0.02696
#>  5     4   0.99511   0.07312   0.06135  -0.02551
#>  6     5   0.99566   0.06703   0.05977  -0.02423
#>  7     6   0.99614   0.06183   0.05782  -0.02305
#>  8     7   0.99656   0.05763   0.05543  -0.02198
#>  9     8   0.99692   0.05426   0.05257  -0.02103
#> 10     9   0.99726   0.05151   0.04915  -0.02020
#> # … with 91 more rows
#> 
#> [[4]]
#> # A tibble: 101 × 5
#>     time         w         x         y         z
#>    <int> <dec:.5!> <dec:.5!> <dec:.5!> <dec:.5!>
#>  1     0   0.99281   0.09669   0.06308  -0.03165
#>  2     1   0.99331   0.09099   0.06403  -0.03082
#>  3     2   0.99390   0.08485   0.06391  -0.02969
#>  4     3   0.99452   0.07821   0.06324  -0.02837
#>  5     4   0.99514   0.07160   0.06207  -0.02695
#>  6     5   0.99567   0.06570   0.06052  -0.02564
#>  7     6   0.99613   0.06075   0.05862  -0.02447
#>  8     7   0.99651   0.05693   0.05633  -0.02347
#>  9     8   0.99685   0.05402   0.05358  -0.02258
#> 10     9   0.99716   0.05187   0.05014  -0.02182
#> # … with 91 more rows
#> 
#> [[5]]
#> # A tibble: 101 × 5
#>     time         w         x         y         z
#>    <int> <dec:.5!> <dec:.5!> <dec:.5!> <dec:.5!>
#>  1     0   0.99414   0.08053   0.07026   0.01615
#>  2     1   0.99469   0.07558   0.06822   0.01535
#>  3     2   0.99521   0.07085   0.06566   0.01506
#>  4     3   0.99574   0.06628   0.06246   0.01461
#>  5     4   0.99623   0.06202   0.05899   0.01379
#>  6     5   0.99669   0.05810   0.05541   0.01259
#>  7     6   0.99710   0.05466   0.05184   0.01102
#>  8     7   0.99743   0.05196   0.04844   0.00912
#>  9     8   0.99771   0.04994   0.04508   0.00691
#> 10     9   0.99795   0.04836   0.04157   0.00448
#> # … with 91 more rows
#> 
#> [[6]]
#> # A tibble: 101 × 5
#>     time         w         x         y         z
#>    <int> <dec:.5!> <dec:.5!> <dec:.5!> <dec:.5!>
#>  1     0   0.99326   0.08804   0.07386   0.01483
#>  2     1   0.99376   0.08244   0.07368   0.01449
#>  3     2   0.99434   0.07693   0.07184   0.01450
#>  4     3   0.99498   0.07123   0.06879   0.01445
#>  5     4   0.99561   0.06567   0.06516   0.01412
#>  6     5   0.99617   0.06071   0.06152   0.01353
#>  7     6   0.99664   0.05649   0.05800   0.01258
#>  8     7   0.99700   0.05351   0.05475   0.01112
#>  9     8   0.99730   0.05149   0.05157   0.00922
#> 10     9   0.99757   0.04996   0.04815   0.00687
#> # … with 91 more rows
#> 
#> [[7]]
#> # A tibble: 101 × 5
#>     time         w         x         y         z
#>    <int> <dec:.5!> <dec:.5!> <dec:.5!> <dec:.5!>
#>  1     0   0.99544   0.07361   0.03614  -0.04869
#>  2     1   0.99563   0.07000   0.03835  -0.04843
#>  3     2   0.99579   0.06682   0.04066  -0.04779
#>  4     3   0.99597   0.06369   0.04263  -0.04663
#>  5     4   0.99617   0.06045   0.04409  -0.04516
#>  6     5   0.99640   0.05724   0.04502  -0.04345
#>  7     6   0.99663   0.05414   0.04557  -0.04139
#>  8     7   0.99688   0.05142   0.04526  -0.03931
#>  9     8   0.99712   0.04916   0.04413  -0.03727
#> 10     9   0.99736   0.04716   0.04244  -0.03530
#> # … with 91 more rows
#> 
#> [[8]]
#> # A tibble: 101 × 5
#>     time         w         x         y         z
#>    <int> <dec:.5!> <dec:.5!> <dec:.5!> <dec:.5!>
#>  1     0   0.99506   0.06909   0.04686  -0.05375
#>  2     1   0.99525   0.06662   0.04888  -0.05157
#>  3     2   0.99547   0.06355   0.05103  -0.04893
#>  4     3   0.99572   0.06026   0.05258  -0.04627
#>  5     4   0.99599   0.05693   0.05343  -0.04370
#>  6     5   0.99627   0.05376   0.05346  -0.04124
#>  7     6   0.99656   0.05103   0.05246  -0.03897
#>  8     7   0.99685   0.04876   0.05047  -0.03688
#>  9     8   0.99715   0.04701   0.04758  -0.03491
#> 10     9   0.99745   0.04557   0.04389  -0.03303
#> # … with 91 more rows
#> 
#> [[9]]
#> # A tibble: 101 × 5
#>     time         w         x         y         z
#>    <int> <dec:.5!> <dec:.5!> <dec:.5!> <dec:.5!>
#>  1     0   0.99416   0.08373   0.06392   0.02332
#>  2     1   0.99469   0.07722   0.06345   0.02448
#>  3     2   0.99533   0.06977   0.06172   0.02525
#>  4     3   0.99605   0.06144   0.05870   0.02562
#>  5     4   0.99673   0.05348   0.05494   0.02533
#>  6     5   0.99733   0.04646   0.05084   0.02434
#>  7     6   0.99780   0.04115   0.04679   0.02247
#>  8     7   0.99816   0.03771   0.04320   0.01981
#>  9     8   0.99842   0.03582   0.04020   0.01636
#> 10     9   0.99859   0.03487   0.03794   0.01247
#> # … with 91 more rows
#> 
#> [[10]]
#> # A tibble: 101 × 5
#>     time         w         x         y         z
#>    <int> <dec:.5!> <dec:.5!> <dec:.5!> <dec:.5!>
#>  1     0   0.99410   0.08159   0.06763   0.02292
#>  2     1   0.99466   0.07394   0.06792   0.02377
#>  3     2   0.99529   0.06609   0.06654   0.02472
#>  4     3   0.99595   0.05819   0.06373   0.02520
#>  5     4   0.99660   0.05040   0.06008   0.02510
#>  6     5   0.99718   0.04344   0.05611   0.02428
#>  7     6   0.99766   0.03784   0.05219   0.02265
#>  8     7   0.99802   0.03411   0.04873   0.02029
#>  9     8   0.99829   0.03204   0.04579   0.01737
#> 10     9   0.99846   0.03142   0.04348   0.01395
#> # … with 91 more rows
#> 
#> [[11]]
#> # A tibble: 101 × 5
#>     time         w         x         y         z
#>    <int> <dec:.5!> <dec:.5!> <dec:.5!> <dec:.5!>
#>  1     0   0.99378   0.09127   0.06209   0.01488
#>  2     1   0.99427   0.08384   0.06456   0.01546
#>  3     2   0.99474   0.07662   0.06608   0.01613
#>  4     3   0.99520   0.07008   0.06629   0.01666
#>  5     4   0.99560   0.06501   0.06528   0.01686
#>  6     5   0.99600   0.06116   0.06301   0.01667
#>  7     6   0.99642   0.05817   0.05930   0.01604
#>  8     7   0.99687   0.05533   0.05442   0.01509
#>  9     8   0.99731   0.05265   0.04899   0.01382
#> 10     9   0.99771   0.05023   0.04370   0.01222
#> # … with 91 more rows
#> 
#> [[12]]
#> # A tibble: 101 × 5
#>     time         w         x         y         z
#>    <int> <dec:.5!> <dec:.5!> <dec:.5!> <dec:.5!>
#>  1     0   0.99378   0.09099   0.06243   0.01470
#>  2     1   0.99423   0.08331   0.06576   0.01532
#>  3     2   0.99467   0.07589   0.06787   0.01635
#>  4     3   0.99510   0.06927   0.06838   0.01739
#>  5     4   0.99556   0.06364   0.06695   0.01831
#>  6     5   0.99606   0.05855   0.06378   0.01903
#>  7     6   0.99659   0.05407   0.05925   0.01932
#>  8     7   0.99710   0.05016   0.05397   0.01914
#>  9     8   0.99753   0.04716   0.04864   0.01831
#> 10     9   0.99786   0.04505   0.04430   0.01688
#> # … with 91 more rows
#> 
#> [[13]]
#> # A tibble: 101 × 5
#>     time         w         x         y         z
#>    <int> <dec:.5!> <dec:.5!> <dec:.5!> <dec:.5!>
#>  1     0   0.99572   0.05082   0.07120   0.02989
#>  2     1   0.99607   0.04731   0.06851   0.03020
#>  3     2   0.99652   0.04346   0.06424   0.03059
#>  4     3   0.99690   0.04018   0.06048   0.03024
#>  5     4   0.99721   0.03769   0.05743   0.02918
#>  6     5   0.99745   0.03611   0.05520   0.02739
#>  7     6   0.99762   0.03522   0.05363   0.02507
#>  8     7   0.99777   0.03469   0.05249   0.02237
#>  9     8   0.99790   0.03413   0.05149   0.01936
#> 10     9   0.99805   0.03312   0.05041   0.01624
#> # … with 91 more rows
#> 
#> [[14]]
#> # A tibble: 101 × 5
#>     time         w         x         y         z
#>    <int> <dec:.5!> <dec:.5!> <dec:.5!> <dec:.5!>
#>  1     0   0.99533   0.05730   0.07186   0.02939
#>  2     1   0.99564   0.05383   0.06994   0.03028
#>  3     2   0.99602   0.04977   0.06725   0.03076
#>  4     3   0.99642   0.04603   0.06398   0.03065
#>  5     4   0.99679   0.04294   0.06059   0.02990
#>  6     5   0.99711   0.04071   0.05741   0.02849
#>  7     6   0.99739   0.03935   0.05452   0.02648
#>  8     7   0.99761   0.03863   0.05191   0.02407
#>  9     8   0.99782   0.03810   0.04948   0.02144
#> 10     9   0.99802   0.03731   0.04712   0.01868
#> # … with 91 more rows
#> 
#> [[15]]
#> # A tibble: 101 × 5
#>     time         w         x         y         z
#>    <int> <dec:.5!> <dec:.5!> <dec:.5!> <dec:.5!>
#>  1     0   0.99572   0.04763   0.07857   0.00966
#>  2     1   0.99606   0.04320   0.07662   0.01099
#>  3     2   0.99645   0.03916   0.07353   0.01212
#>  4     3   0.99685   0.03575   0.06964   0.01263
#>  5     4   0.99723   0.03312   0.06537   0.01245
#>  6     5   0.99757   0.03146   0.06115   0.01154
#>  7     6   0.99784   0.03067   0.05716   0.00996
#>  8     7   0.99807   0.03046   0.05351   0.00791
#>  9     8   0.99826   0.03047   0.05026   0.00564
#> 10     9   0.99841   0.03027   0.04742   0.00342
#> # … with 91 more rows
#> 
#> [[16]]
#> # A tibble: 101 × 5
#>     time         w         x         y         z
#>    <int> <dec:.5!> <dec:.5!> <dec:.5!> <dec:.5!>
#>  1     0   0.99508   0.05950   0.07884   0.00834
#>  2     1   0.99543   0.05417   0.07795   0.00998
#>  3     2   0.99583   0.04959   0.07573   0.01138
#>  4     3   0.99625   0.04556   0.07256   0.01228
#>  5     4   0.99665   0.04230   0.06889   0.01263
#>  6     5   0.99701   0.03996   0.06501   0.01235
#>  7     6   0.99731   0.03857   0.06124   0.01144
#>  8     7   0.99757   0.03784   0.05758   0.00995
#>  9     8   0.99781   0.03740   0.05400   0.00803
#> 10     9   0.99803   0.03681   0.05039   0.00590
#> # … with 91 more rows
#> 
#> [[17]]
#> # A tibble: 101 × 5
#>     time         w         x         y         z
#>    <int> <dec:.5!> <dec:.5!> <dec:.5!> <dec:.5!>
#>  1     0   0.99629   0.06356   0.03543   0.04602
#>  2     1   0.99660   0.05922   0.03558   0.04486
#>  3     2   0.99691   0.05521   0.03517   0.04352
#>  4     3   0.99720   0.05120   0.03477   0.04191
#>  5     4   0.99748   0.04739   0.03443   0.04010
#>  6     5   0.99773   0.04383   0.03425   0.03798
#>  7     6   0.99795   0.04065   0.03422   0.03554
#>  8     7   0.99816   0.03779   0.03427   0.03282
#>  9     8   0.99834   0.03510   0.03437   0.02992
#> 10     9   0.99852   0.03247   0.03447   0.02693
#> # … with 91 more rows
#> 
#> [[18]]
#> # A tibble: 101 × 5
#>     time         w         x         y         z
#>    <int> <dec:.5!> <dec:.5!> <dec:.5!> <dec:.5!>
#>  1     0   0.99610   0.06296   0.03600   0.05024
#>  2     1   0.99647   0.05819   0.03511   0.04922
#>  3     2   0.99682   0.05376   0.03413   0.04794
#>  4     3   0.99714   0.04963   0.03342   0.04628
#>  5     4   0.99742   0.04591   0.03294   0.04434
#>  6     5   0.99768   0.04262   0.03259   0.04202
#>  7     6   0.99791   0.03983   0.03232   0.03935
#>  8     7   0.99811   0.03752   0.03219   0.03639
#>  9     8   0.99831   0.03524   0.03216   0.03314
#> 10     9   0.99849   0.03297   0.03211   0.02984
#> # … with 91 more rows
#> 
#> [[19]]
#> # A tibble: 101 × 5
#>     time         w         x         y         z
#>    <int> <dec:.5!> <dec:.5!> <dec:.5!> <dec:.5!>
#>  1     0   0.99425   0.08755   0.06114   0.00736
#>  2     1   0.99449   0.08382   0.06244   0.00782
#>  3     2   0.99479   0.08000   0.06257   0.00848
#>  4     3   0.99520   0.07567   0.06144   0.00925
#>  5     4   0.99564   0.07109   0.05950   0.00998
#>  6     5   0.99611   0.06640   0.05694   0.01054
#>  7     6   0.99657   0.06187   0.05394   0.01082
#>  8     7   0.99701   0.05748   0.05054   0.01064
#>  9     8   0.99743   0.05342   0.04676   0.00993
#> 10     9   0.99780   0.04976   0.04281   0.00882
#> # … with 91 more rows
#> 
#> [[20]]
#> # A tibble: 101 × 5
#>     time         w         x         y         z
#>    <int> <dec:.5!> <dec:.5!> <dec:.5!> <dec:.5!>
#>  1     0   0.99415   0.07971   0.07196   0.01186
#>  2     1   0.99466   0.07439   0.07042   0.01248
#>  3     2   0.99519   0.06930   0.06793   0.01330
#>  4     3   0.99574   0.06414   0.06482   0.01376
#>  5     4   0.99624   0.05939   0.06150   0.01371
#>  6     5   0.99668   0.05542   0.05816   0.01313
#>  7     6   0.99707   0.05212   0.05470   0.01209
#>  8     7   0.99744   0.04914   0.05093   0.01066
#>  9     8   0.99779   0.04641   0.04673   0.00885
#> 10     9   0.99812   0.04383   0.04233   0.00685
#> # … with 91 more rows
#> 
#> [[21]]
#> # A tibble: 101 × 5
#>     time         w         x         y         z
#>    <int> <dec:.5!> <dec:.5!> <dec:.5!> <dec:.5!>
#>  1     0   0.99514   0.07774   0.04211   0.04334
#>  2     1   0.99562   0.07217   0.04124   0.04284
#>  3     2   0.99604   0.06719   0.04020   0.04223
#>  4     3   0.99643   0.06235   0.03934   0.04121
#>  5     4   0.99677   0.05797   0.03869   0.03978
#>  6     5   0.99709   0.05391   0.03829   0.03782
#>  7     6   0.99739   0.05013   0.03808   0.03535
#>  8     7   0.99767   0.04652   0.03797   0.03254
#>  9     8   0.99791   0.04310   0.03794   0.02960
#> 10     9   0.99814   0.03966   0.03796   0.02657
#> # … with 91 more rows
#> 
#> [[22]]
#> # A tibble: 101 × 5
#>     time         w         x         y         z
#>    <int> <dec:.5!> <dec:.5!> <dec:.5!> <dec:.5!>
#>  1     0   0.99565   0.07073   0.04537   0.04024
#>  2     1   0.99606   0.06590   0.04397   0.03998
#>  3     2   0.99647   0.06078   0.04244   0.03931
#>  4     3   0.99686   0.05577   0.04130   0.03818
#>  5     4   0.99718   0.05137   0.04071   0.03660
#>  6     5   0.99745   0.04760   0.04043   0.03458
#>  7     6   0.99769   0.04431   0.04019   0.03208
#>  8     7   0.99790   0.04154   0.04000   0.02935
#>  9     8   0.99810   0.03893   0.03983   0.02645
#> 10     9   0.99829   0.03604   0.03958   0.02341
#> # … with 91 more rows
#> 
#> [[23]]
#> # A tibble: 101 × 5
#>     time         w         x         y         z
#>    <int> <dec:.5!> <dec:.5!> <dec:.5!> <dec:.5!>
#>  1     0   0.99396   0.08718   0.06504   0.01470
#>  2     1   0.99426   0.08295   0.06581   0.01518
#>  3     2   0.99460   0.07898   0.06531   0.01616
#>  4     3   0.99502   0.07470   0.06373   0.01723
#>  5     4   0.99549   0.07014   0.06126   0.01814
#>  6     5   0.99597   0.06555   0.05823   0.01865
#>  7     6   0.99646   0.06107   0.05481   0.01854
#>  8     7   0.99691   0.05687   0.05120   0.01790
#>  9     8   0.99734   0.05292   0.04730   0.01672
#> 10     9   0.99775   0.04922   0.04309   0.01499
#> # … with 91 more rows
#> 
#> [[24]]
#> # A tibble: 101 × 5
#>     time         w         x         y         z
#>    <int> <dec:.5!> <dec:.5!> <dec:.5!> <dec:.5!>
#>  1     0   0.99353   0.08626   0.07223   0.01578
#>  2     1   0.99390   0.08166   0.07244   0.01573
#>  3     2   0.99423   0.07778   0.07201   0.01643
#>  4     3   0.99463   0.07372   0.07052   0.01716
#>  5     4   0.99511   0.06934   0.06808   0.01786
#>  6     5   0.99561   0.06483   0.06492   0.01833
#>  7     6   0.99613   0.06035   0.06121   0.01838
#>  8     7   0.99662   0.05618   0.05723   0.01789
#>  9     8   0.99709   0.05230   0.05292   0.01687
#> 10     9   0.99753   0.04868   0.04831   0.01535
#> # … with 91 more rows
#> 
#> [[25]]
#> # A tibble: 101 × 5
#>     time         w         x         y         z
#>    <int> <dec:.5!> <dec:.5!> <dec:.5!> <dec:.5!>
#>  1     0   0.99682   0.06287   0.04827   0.00874
#>  2     1   0.99698   0.06210   0.04587   0.00788
#>  3     2   0.99728   0.05994   0.04232   0.00711
#>  4     3   0.99762   0.05693   0.03836   0.00642
#>  5     4   0.99799   0.05310   0.03406   0.00576
#>  6     5   0.99838   0.04835   0.02945   0.00511
#>  7     6   0.99879   0.04245   0.02453   0.00458
#>  8     7   0.99915   0.03587   0.01970   0.00403
#>  9     8   0.99947   0.02881   0.01491   0.00350
#> 10     9   0.99971   0.02142   0.01022   0.00297
#> # … with 91 more rows
#> 
#> [[26]]
#> # A tibble: 101 × 5
#>     time         w         x         y         z
#>    <int> <dec:.5!> <dec:.5!> <dec:.5!> <dec:.5!>
#>  1     0   0.99508   0.06775   0.07115   0.01238
#>  2     1   0.99555   0.06453   0.06735   0.01331
#>  3     2   0.99601   0.06114   0.06356   0.01385
#>  4     3   0.99643   0.05771   0.06000   0.01413
#>  5     4   0.99683   0.05401   0.05668   0.01412
#>  6     5   0.99716   0.05091   0.05380   0.01387
#>  7     6   0.99741   0.04853   0.05133   0.01328
#>  8     7   0.99764   0.04651   0.04886   0.01243
#>  9     8   0.99786   0.04483   0.04616   0.01134
#> 10     9   0.99808   0.04324   0.04329   0.01008
#> # … with 91 more rows
#> 
#> [[27]]
#> # A tibble: 101 × 5
#>     time         w         x         y         z
#>    <int> <dec:.5!> <dec:.5!> <dec:.5!> <dec:.5!>
#>  1     0   0.99730   0.02816   0.06431  -0.02133
#>  2     1   0.99758   0.02689   0.06127  -0.01878
#>  3     2   0.99785   0.02634   0.05769  -0.01654
#>  4     3   0.99806   0.02657   0.05419  -0.01502
#>  5     4   0.99824   0.02739   0.05069  -0.01393
#>  6     5   0.99838   0.02871   0.04734  -0.01332
#>  7     6   0.99848   0.03007   0.04429  -0.01323
#>  8     7   0.99857   0.03112   0.04127  -0.01344
#>  9     8   0.99867   0.03179   0.03807  -0.01381
#> 10     9   0.99879   0.03198   0.03461  -0.01417
#> # … with 91 more rows
…
