QTS Sample Centering and Standardization — scale • squat
…
mean: a list of numeric vectors storing the corresponding quaternion
Fréchet means;

sd: a numeric vector storing the corresponding quaternion Fréchet
standard deviations.

    Examples

x <- scale(vespa64$igp)
x[[1]]
#> # A tibble: 101 × 5
#>     time         w         x         y         z
#>    <int> <dec:.5!> <dec:.5!> <dec:.5!> <dec:.5!>
#>  1     0   0.99956  -0.01849   0.02258  -0.00497
#>  2     1   0.99960  -0.01996   0.01945  -0.00491
#>  3     2   0.99962  -0.02170   0.01592  -0.00514
#>  4     3   0.99962  -0.02412   0.01211  -0.00573
#>  5     4   0.99960  -0.02614   0.00892  -0.00643
#>  6     5   0.99956  -0.02801   0.00619  -0.00707
#>  7     6   0.99953  -0.02946   0.00407  -0.00758
#>  8     7   0.99951  -0.03028   0.00242  -0.00807
#>  9     8   0.99949  -0.03072   0.00100  -0.00865
#> 10     9   0.99948  -0.03085  -0.00056  -0.00936
#> # ℹ 91 more rows
…
